[gd_scene load_steps=5 format=2]

[ext_resource path="res://Scenes/StageComponents/Flame/FlameGenerator.gd" type="Script" id=1]
[ext_resource path="res://Assets/Image/tilemap2.png" type="Texture" id=2]

[sub_resource type="ConvexPolygonShape2D" id=1]
points = PoolVector2Array( 32, 32, 0, 32, 0, 0, 32, 0 )

[sub_resource type="TileSet" id=2]
0/name = "tilemap2.png 0"
0/texture = ExtResource( 2 )
0/tex_offset = Vector2( 0, 0 )
0/modulate = Color( 1, 1, 1, 1 )
0/region = Rect2( 256, 128, 32, 32 )
0/tile_mode = 0
0/occluder_offset = Vector2( 0, 0 )
0/navigation_offset = Vector2( 0, 0 )
0/shape_offset = Vector2( 0, 0 )
0/shape_transform = Transform2D( 1, 0, 0, 1, 0, 0 )
0/shape = SubResource( 1 )
0/shape_one_way = false
0/shape_one_way_margin = 1.0
0/shapes = [ {
"autotile_coord": Vector2( 0, 0 ),
"one_way": false,
"one_way_margin": 1.0,
"shape": SubResource( 1 ),
"shape_transform": Transform2D( 1, 0, 0, 1, 0, 0 )
} ]
0/z_index = 0

[node name="FlameGenerator" type="TileMap"]
tile_set = SubResource( 2 )
cell_size = Vector2( 16, 16 )
format = 1
tile_data = PoolIntArray( -1, 0, 0 )
script = ExtResource( 1 )
