[gd_scene load_steps=4 format=2]

[ext_resource path="res://Scenes/StageComponents/Waters/SwimmableWater.gd" type="Script" id=1]
[ext_resource path="res://Assets/Tileset/WaterAnimated.tres" type="Texture" id=2]


[sub_resource type="TileSet" id=1]
0/name = "swimmable"
0/texture = ExtResource( 2 )
0/tex_offset = Vector2( 0, 0 )
0/modulate = Color( 1, 1, 1, 1 )
0/region = Rect2( 0, 0, 64, 16 )
0/tile_mode = 1
0/autotile/bitmask_mode = 0
0/autotile/bitmask_flags = [ Vector2( 0, 0 ), 320, Vector2( 1, 0 ), 320, Vector2( 2, 0 ), 320, Vector2( 3, 0 ), 325 ]
0/autotile/icon_coordinate = Vector2( 0, 0 )
0/autotile/tile_size = Vector2( 16, 16 )
0/autotile/spacing = 0
0/autotile/occluder_map = [  ]
0/autotile/navpoly_map = [  ]
0/autotile/priority_map = [  ]
0/autotile/z_index_map = [  ]
0/occluder_offset = Vector2( 0, 0 )
0/navigation_offset = Vector2( 0, 0 )
0/shape_offset = Vector2( 0, 0 )
0/shape_transform = Transform2D( 1, 0, 0, 1, 0, 0 )
0/shape_one_way = false
0/shape_one_way_margin = 0.0
0/shapes = [  ]
0/z_index = 0
1/name = "stream"
1/texture = ExtResource( 2 )
1/tex_offset = Vector2( 0, 0 )
1/modulate = Color( 1, 1, 1, 1 )
1/region = Rect2( 64, 0, 64, 16 )
1/tile_mode = 2
1/autotile/icon_coordinate = Vector2( 0, 0 )
1/autotile/tile_size = Vector2( 16, 16 )
1/autotile/spacing = 0
1/autotile/occluder_map = [  ]
1/autotile/navpoly_map = [  ]
1/autotile/priority_map = [  ]
1/autotile/z_index_map = [  ]
1/occluder_offset = Vector2( 0, 0 )
1/navigation_offset = Vector2( 0, 0 )
1/shape_offset = Vector2( 0, 0 )
1/shape_transform = Transform2D( 1, 0, 0, 1, 0, 0 )
1/shape_one_way = false
1/shape_one_way_margin = 0.0
1/shapes = [  ]
1/z_index = 0

[node name="SwimmableWater" type="TileMap"]
tile_set = SubResource( 1 )
cell_size = Vector2( 16, 16 )
format = 1
script = ExtResource( 1 )

[node name="SplashTimer" type="Timer" parent="."]
wait_time = 0.2
one_shot = true
[connection signal="timeout" from="SplashTimer" to="." method="_on_SplashTimer_timeout"]
